\relax 
\@writefile{toc}{\contentsline {section}{\numberline {6}Glossar}{7}}
\newlabel{sub:Glossar}{{6}{7}}
\@writefile{toc}{\contentsline {subsection}{\numberline {6.1}Title}{7}}
\newlabel{sub:Title}{{6.1}{7}}
\@setckpt{Glossary}{
\setcounter{page}{8}
\setcounter{equation}{0}
\setcounter{enumi}{0}
\setcounter{enumii}{0}
\setcounter{enumiii}{0}
\setcounter{enumiv}{0}
\setcounter{footnote}{0}
\setcounter{mpfootnote}{0}
\setcounter{part}{0}
\setcounter{chapter}{0}
\setcounter{section}{6}
\setcounter{subsection}{1}
\setcounter{subsubsection}{0}
\setcounter{paragraph}{0}
\setcounter{subparagraph}{0}
\setcounter{figure}{0}
\setcounter{table}{0}
\setcounter{parentequation}{0}
\setcounter{@todonotes@numberoftodonotes}{0}
\setcounter{float@type}{8}
\setcounter{ContinuedFloat}{0}
\setcounter{KVtest}{0}
\setcounter{subfigure}{0}
\setcounter{subfigure@save}{0}
\setcounter{lofdepth}{1}
\setcounter{subtable}{0}
\setcounter{subtable@save}{0}
\setcounter{lotdepth}{1}
\setcounter{lstnumber}{1}
\setcounter{NAT@ctr}{0}
\setcounter{lstlisting}{0}
}
